#197 - Roussillon | 

owner = A28
controller = A28
add_core = A28
culture = greenscale_kobold
religion = kobold_dragon_cult

hre = no

base_tax = 1
base_production = 1
base_manpower = 2

trade_goods = wool

capital = ""

is_city = yes






