# No previous file for Chickamauga
owner = G74
controller = G74
add_core = G74
culture = yodhanpir
religion = gods_of_the_taychend
capital = ""

hre = no
fort_15th = yes

base_tax = 4
base_production = 4
base_manpower = 3

trade_goods = grain

1443.1.1 = {	
	owner = G52
	controller = G52
	add_core = G52
}