#311 - Kholm

owner = A60
controller = A60
add_core = A60
culture = arannese
religion = regent_court

hre = yes

base_tax = 5
base_production = 5
base_manpower = 3

trade_goods = grain

capital = ""

is_city = yes
fort_15th = yes 







add_permanent_province_modifier = {
	name = half_elven_minority_integrated_large
	duration = -1
}