#404 - Liwa

owner = F06
controller = F06
add_core = F06
culture = desha
religion = mother_akan

hre = no

base_tax = 5
base_production = 5
base_manpower = 3

trade_goods = cloth

capital = ""

is_city = yes








