
#423 - Kartli

owner = A77
controller = A77
add_core = A77
culture = aldresian
religion = regent_court

hre = yes

base_tax = 4
base_production = 4
base_manpower = 6

trade_goods = iron

capital = ""

is_city = yes

fort_15th = yes









add_permanent_province_modifier = {
	name = half_elven_minority_coexisting_small
	duration = -1
}
