#469 - Ryn

owner = F01
controller = F01
add_core = F01
add_core = F03
culture = kheteratan
religion = khetist

hre = no

base_tax = 6
base_production = 4
base_manpower = 4

trade_goods = cotton

capital = ""

is_city = yes










