#519 - Hopespeak

owner = F17
controller = F17
add_core = F17
add_core = F18
culture = crathanori
religion = regent_court


base_tax = 2
base_production = 2
base_manpower = 2

trade_goods = wool

capital = ""

is_city = yes











