# No previous file for Vargrhol
owner = Z11
controller = Z11
add_core = Z11
culture = east_dalr
religion = skaldhyrric_faith

hre = no

base_tax = 2
base_production = 2
base_manpower = 1

trade_goods = gems

capital = ""

is_city = yes






