A93_silk_missions_slot = {
	slot = 1
	generic = no
	ai = yes
	potential = {
		tag = A93
		
	}
	has_country_shield = yes
	
	A93_develop_estallen = {
		icon = mission_early_game_buildings
		required_missions = { }
		position = 1
		
		trigger = {
			280 = { 
				development = 30
				owned_by = ROOT
				}
		}
		
		effect = {
			280 = {
				add_center_of_trade_level  = 1
			}
		}	
	}
	
	A93_secrets_of_silk = {
		icon = mission_asian_trader
		required_missions = { A93_develop_estallen }
		position = 2
		
		trigger = {
			OR = {
				A03 = {
					overlord = {
						ROOT = {
							has_spy_network_in = {
								who = PREV
								value = 40
							}
						}
					}
				}
				has_spy_network_in = {
					WHO = A03
					value = 40
				}
				NOT = {
					exists = A03
				}
			}
		}
		
		effect = {
			280 = {
				add_base_production = 2
				add_center_of_trade_level  = 1
				change_trade_goods = silk
			}
			add_spy_network_in = {
					WHO = A03
					value = -40
				}
			A03 = {
				overlord = {
					ROOT = {
						add_spy_network_in = {
							who = PREV
							value = -40
						}
					}
				}
			}
		}	
	}
	
	A93_ramp_up_silk = {
		icon = mission_city_prosperity
		required_missions = { A93_secrets_of_silk }
		position = 3
		
		trigger = {
			280 = {
				owned_by = ROOT
				is_core = ROOT
				development = 40
				has_production_building_trigger = yes
			}
		}
		
		effect = {
			280 = {
				add_permanent_province_modifier = {
					name = "estalleni_silks"
					duration = -1
				}
			}
		}	
	}
	
	A93_mercenary_relations = {
		icon = mission_dancing_with_dead
		required_missions = { }
		position = 4
		
		trigger = {
			dip_power = 100
		}
		
		effect = {
			add_dip_power = -100
			add_country_modifier = {
				name = "estalleni_mercenary_relations"
				duration = 7300
			}
		}	
	}
	
	A93_new_pinklady_band = {
		icon = mission_destroyed_city
		required_missions = { A93_mercenary_relations }
		position = 4
		
		trigger = {
			mil_tech = 8
		}
		
		effect = {
			custom_tooltip = estallen_new_pinklady_tt
			set_global_flag = new_pinklady_band
		}	
	}
}

A93_western_missions_slot = {
	slot = 2
	generic = no
	ai = yes
	potential = {
		tag = A93
		
	}
	has_country_shield = yes
	
	A93_song_of_victory = {
		icon = mission_swear_fealty_knight
		required_missions = { A93_standing_army }
		position = 2
		provinces_to_highlight = {
			OR = {
				area = songbarges_area
			}
			NOT = {
				country_or_non_sovereign_subject_holds = ROOT
			}
		}
		trigger = {
			songbarges_area = {
				type = all
				country_or_non_sovereign_subject_holds = ROOT
			}
		}
		effect = {
			hearthswood_area = {
				limit = {
					NOT = { is_core = ROOT }
					NOT = { owned_by = ROOT }
				}
				add_permanent_claim = ROOT
			}
		}
	}
	
	A93_lovers_of_ryala = {
		icon = mission_hanseatic_city
		required_missions = { A93_loot_leslinpar }
		position = 4
		provinces_to_highlight = {
			OR = {
				area = songbarges_area
			}
			NOT = {
				country_or_non_sovereign_subject_holds = ROOT
			}
		}
		trigger = {
			konwell_area = {
				type = all
				country_or_non_sovereign_subject_holds = ROOT
			}
			ryalanar_area = {
				type = all
				country_or_non_sovereign_subject_holds = ROOT
			}
		}
		effect = {
			upper_luna_area = {
				limit = {
					NOT = { is_core = ROOT }
					NOT = { owned_by = ROOT }
				}
				add_permanent_claim = ROOT
			}
			the_commons_area = {
				limit = {
					NOT = { is_core = ROOT }
					NOT = { owned_by = ROOT }
				}
				add_permanent_claim = ROOT
			}
			add_country_modifier = {
				name = "lovers_of_ryala"
				duration = 7300
			}
		}
	}
	
}

A93_central_missions_slot = {
	slot = 3
	generic = no
	ai = yes
	potential = {
		tag = A93
		
	}
	has_country_shield = yes
	
	A93_standing_army = {
		icon = mission_teutonic_knights
		required_missions = { }
		position = 1
		
		trigger = {
			army_size_percentage = 0.8
		}
		effect = {
			songbarges_area = {
				limit = {
					NOT = { is_core = ROOT }
					NOT = { owned_by = ROOT }
				}
				add_permanent_claim = ROOT
			}
			301 = {
				limit = {
					NOT = { is_core = ROOT }
					NOT = { owned_by = ROOT }
				}
				add_permanent_claim = ROOT
			}
		}
	}
	
	A93_minor_nuisance = {
		icon = mission_ghost_town
		required_missions = { A93_standing_army }
		position = 2
		provinces_to_highlight = {
			OR = {
				area = low_esmar_area
			}
			NOT = {
				country_or_non_sovereign_subject_holds = ROOT
			}
		}
		trigger = {
			301 = {
				type = all
				country_or_non_sovereign_subject_holds = ROOT
			}
		}
		effect = {
			901 = { add_permanent_claim = ROOT }
			302 = { add_permanent_claim = ROOT }
			309 = { add_permanent_claim = ROOT }
		}
	}
	
	A93_loot_leslinpar = {
		icon = mission_burning_castle
		required_missions = { A93_song_of_victory A93_minor_nuisance }
		position = 3
		provinces_to_highlight = {
			OR = {
				province_id = 901
				province_id = 302
				province_id = 309
				area = hearthswood_area
			}
			NOT = {
				country_or_non_sovereign_subject_holds = ROOT
			}
		}
		trigger = {
			owns_core_province = 901
			owns_core_province = 302
			owns_core_province = 309
			hearthswood_area = {
				type = all
				country_or_non_sovereign_subject_holds = ROOT
			}
		}
		effect = {
			280 = {
				add_base_tax = 4
				add_base_production = 4
				add_base_manpower = 4
			}
			901 = {
				add_base_tax = -4
				add_base_production = -4
				add_base_manpower = -4
			}
			esmaria_region = {
				limit = {
					NOT = { is_core = ROOT }
					NOT = { owned_by = ROOT }
				}
				add_permanent_claim = ROOT
			}
		}
	}
	
	A93_children_of_esmaryal = {
		icon = mission_big_house
		required_missions = { A93_loot_leslinpar }
		position = 4
		provinces_to_highlight = {
			OR = {
				area = songbarges_area
			}
			NOT = {
				country_or_non_sovereign_subject_holds = ROOT
			}
		}
		trigger = {
			cann_esmar_area = {
				type = all
				country_or_non_sovereign_subject_holds = ROOT
			}
		}
		effect = {
			heartland_borders_area = {
				limit = {
					NOT = { is_core = ROOT }
					NOT = { owned_by = ROOT }
				}
				add_permanent_claim = ROOT
			}
			add_country_modifier = {
				name = "children_of_esmaryal"
				duration = 7300
			}
		}
	}
	
	A93_imperial_heart = {
		icon = mission_female_throne
		required_missions = { A93_lovers_of_ryala A93_children_of_esmaryal A93_heirs_of_balgar }
		position = 4
		provinces_to_highlight = {
			OR = {
				area = songbarges_area
			}
			NOT = {
				country_or_non_sovereign_subject_holds = ROOT
			}
		}
		trigger = {
			heartland_borders_area = {
				type = all
				country_or_non_sovereign_subject_holds = ROOT
			}
			upper_luna_area = {
				type = all
				country_or_non_sovereign_subject_holds = ROOT
			}
			the_commons_area = {
				type = all
				country_or_non_sovereign_subject_holds = ROOT
			}
			wexhills_area = {
				type = all
				country_or_non_sovereign_subject_holds = ROOT
			}
			ashfields_area = {
				type = all
				country_or_non_sovereign_subject_holds = ROOT
			}
		}
		effect = {
			add_country_modifier = {
				name = "estallen_imperial_heartland"
				duration = -1
			}
		}
	}
	
}

A93_diplomacy_missions_slot = {
	slot = 4
	generic = no
	ai = yes
	potential = {
		tag = A93
		
	}
	has_country_shield = yes
	
	A93_lovely_ladies_of_estallen = {
		icon = mission_princess_writing
		required_missions = { }
		position = 1
		
		trigger = {
			personal_union = 3
		}
		
		effect = {
			add_country_modifier = {
				name = "estalleni_courtesans"
				duration = 7300
			}
		}	
	}
	
	A93_value_of_friendship = {
		icon = mission_merchant_trip
		required_missions = { }
		position = 2
		
		trigger = {
			num_of_allies = 7
		}
		
		effect = {
			every_ally = { 
				add_trust = {
					who = ROOT
					value = 40
					mutual = yes 
				}
			}
		}
	}
	
	A93_halfling_dye = {
		icon = mission_whisper
		required_missions = { A93_minor_nuisance }
		position = 3
		provinces_to_highlight = {
			OR = {
				area = viswall_area
			}
			NOT = {
				country_or_non_sovereign_subject_holds = ROOT
			}
		}
		trigger = {
			owns_core_province = 301
			OR = {
				A07 = {
					overlord = {
						ROOT = {
							has_spy_network_in = {
								who = PREV
								value = 40
							}
						}
					}
				}
				A08 = {
					overlord = {
						ROOT = {
							has_spy_network_in = {
								who = PREV
								value = 40
							}
						}
					}
				}
				has_spy_network_in = {
					WHO = A07
					value = 40
				}
				has_spy_network_in = {
					WHO = A08
					value = 40
				}
				AND = { 
					NOT = {
						exists = A07
					}
					NOT = {
						exists = A08
					}
				}
			}
		}
		effect = {
			301 = {
				add_base_production = 2
				change_trade_goods = dyes
			}
			add_spy_network_in = {
					WHO = A07
					value = -40
				}
			add_spy_network_in = {
					WHO = A08
					value = -40
				}
			A07 = {
				overlord = {
					ROOT = {
						add_spy_network_in = {
							who = PREV
							value = -40
						}
					}
				}
			}
			A08 = {
				overlord = {
					ROOT = {
						add_spy_network_in = {
							who = PREV
							value = -40
						}
					}
				}
			}
		}	
	}
	
	A93_heirs_of_balgar = {
		icon = mission_smith
		required_missions = { A93_loot_leslinpar }
		position = 4
		provinces_to_highlight = {
			OR = {
				area = songbarges_area
			}
			NOT = {
				country_or_non_sovereign_subject_holds = ROOT
			}
		}
		trigger = {
			bennonhill_area = {
				type = all
				country_or_non_sovereign_subject_holds = ROOT
			}
			high_esmar_area = {
				type = all
				country_or_non_sovereign_subject_holds = ROOT
			}
		}
		effect = {
			ashfields_area = {
				limit = {
					NOT = { is_core = ROOT }
					NOT = { owned_by = ROOT }
				}
				add_permanent_claim = ROOT
			}
			wexhills_area = {
				limit = {
					NOT = { is_core = ROOT }
					NOT = { owned_by = ROOT }
				}
				add_permanent_claim = ROOT
			}
			add_country_modifier = {
				name = "heirs_of_balgar"
				duration = 7300
			}
		}
	}
	
}


