namespace = flavor_gawed

#Burning of the Redglades
country_event = {
	id = flavor_gawed.1
	title = flavor_gawed.1.t
	desc = flavor_gawed.1.d
	picture = BORDER_TENSION_eventPicture
	
	is_triggered_only = yes
	
	option = {
		name = flavor_gawed.1.a
		add_country_modifier = {
			name = "gawed_bane_of_elfkind"
			duration = -1
		}
		redglades_area = {
			add_loot_from_rich_province_general_effect = {
				LOOTER = owner
			}
			add_province_modifier = {
				name = "gawed_burning_of_the_redglades"
				duration = -1
			}
			change_culture = ROOT
		}
		
		hidden_effect = {
			every_country = {
				limit = {
					OR = {
						capital_scope = { continent = europe }
						capital_scope = { superregion = bulwar_superregion }
						capital_scope = { superregion = salahad_superregion }
					}
					NOT = { tag = ROOT }
				}
				country_event = { id = flavor_gawed.2 days = 7 }
			}
		}
	}

}

#Gawed burns the Redglades
country_event = {
	id = flavor_gawed.2
	title = flavor_gawed.2.t
	desc = flavor_gawed.2.d
	picture = BORDER_TENSION_eventPicture
	
	is_triggered_only = yes
	
	option = {	#This is preposterous!
		name = flavor_gawed.2.a
		trigger = {
			NOT = { culture_group = elven }
		}
		ai_chance = {
			factor = 80
			
			modifier = {
				factor = 1.5
				OR = {
					culture_group = lencori
					culture_group = anbennarian
					culture_group = escanni
					culture_group = businori
					is_rival = A13
					historical_rival_with = A13
				}
			}
		}
		add_opinion = { who = A13 modifier = A13_burned_the_redglades_anb }
	}
	
	option = {	#Elven reaction
		name = flavor_gawed.2.b
		trigger = {
			culture_group = elven
		}
		ai_chance = {
			factor = 100
			modifier = {
				factor = 100
				OR = {
					culture_group = elven
				}
			}
		}
		add_opinion = { who = A13 modifier = A13_burned_the_redglades_elf }
	}
	
	option = {	#Meh
		name = flavor_gawed.2.c
		ai_chance = {
			factor = 10
			
			modifier = {
				factor = 100
				OR = {
					alliance_with = A13
					historical_friend_with = A13
				}
			}
			modifier = {
				factor = 10
				OR = {
					culture_group = orcish
					culture_group = goblin
					culture_group = kobold
					culture_group = gerudian
					culture_group = divenori
					culture_group = alenic
				}
			}
			
		}
		
		if = {
			limit = { 
				OR = { 
					culture_group = elven
					culture_group = anbennarian	
					culture_group = lencori
					culture_group = escanni
					culture_group = businori
					culture_group = bulwari
				}
			}
			add_prestige = -10	#you're supposed to dislike em
		}
	}
}

#Gawed countryside converts to corinite
country_event = {
	id = flavor_gawed.3
	title = flavor_gawed.3.t
	desc = flavor_gawed.3.d
	picture = RELIGION_eventPicture
	
	fire_only_once = yes
	
	trigger = {
		tag = A13
		is_religion_enabled = corinite
		current_age = age_of_reformation
		
		NOT = { religion = corinite }
	}
	
	mean_time_to_happen = {
		months = 100
		
		modifier = {
			factor = 0.5
			any_owned_province = { 
				religion = corinite
			}
		}
		
		modifier = {
			factor = 0.1
			any_owned_province = { 
				religion = corinite
				is_reformation_center = yes
			}
		}
	}
	immediate = {
		hidden_effect = {
			alenic_frontier_region = {
				limit = {
					culture = old_alenic	
					development = 10
					religion = regent_court
				}
				random = {
					chance = 20
					change_religion = corinite
				}
			}
			alenic_frontier_region = {
				limit = {
					NOT = {
						development = 10
					}
					culture = old_alenic	
					religion = regent_court
				}
				random = {
					chance = 70
					change_religion = corinite
				}
			}
			alenic_frontier_region = {
				limit = {
					NOT = {
						development = 10
						culture = old_alenic
					}
					religion = regent_court
					culture_group = alenic
				}
				random = {
					chance = 30
					change_religion = corinite
				}
			}
			alenic_frontier_region = {
				limit = {
					NOT = {
						culture = old_alenic
					}
					development = 10
					religion = regent_court
					culture_group = alenic
				}
				random = {
					chance = 5
					change_religion = corinite
				}
			}
			dragonhills_area = {
				limit = {
					culture_group = alenic
					religion = regent_court
				}
				random = {
					chance = 20
					change_religion = corinite
				}
			}
			gawed_area = {
				limit = {
					culture_group = alenic
					religion = regent_court
				}
				add_permanent_province_modifier = {
					name = "gawed_regent_court"
					duration = 3650
				}
			}
			south_alen_area = {
				limit = {
					culture_group = alenic
					religion = regent_court
				}
				add_permanent_province_modifier = {
					name = "gawed_regent_court"
					duration = 3650
				}
			}
			westmounts_area = {
				limit = {
					culture_group = alenic
					religion = regent_court
				}
				add_permanent_province_modifier = {
					name = "gawed_regent_court"
					duration = 3650
				}
			}
			alenvord_area = {
				limit = {
					culture_group = alenic
					religion = regent_court
				}
				add_permanent_province_modifier = {
					name = "gawed_regent_court"
					duration = 3650
				}
			}
		}
	}
	
	#Ignore the peasants
	option = {
		name = flavor_gawed.3.a
		ai_chance = {
			factor = 90
			modifier = {
				factor = 2
				has_personal_deity = adean
			}
			modifier = {
				factor = 1.5
				ruler_has_personality = calm_personality
			}
			modifier = {
				factor = 1.5
				ruler_has_personality = careful_personality
			}
			modifier = {
				factor = 1.5
				has_personal_deity = ara	#Adean's wife
			}
			modifier = {
				factor = 2
				ruler_has_personality = zealot_personality
			}
		}
		
	}
	
	#Convert to Corinite
	option = {
		name = flavor_gawed.3.b
		ai_chance = {
			factor = 10
			modifier = {
				factor = 4
				has_personal_deity = corin
			}
			modifier = {
				factor = 2
				mil = 3
			}
			modifier = {
				factor = 0
				is_emperor = yes
			}
			modifier = {
				factor = 2
				personality = ai_militarist
			}
			modifier = {
				factor = 1.5
				ruler_has_personality = free_thinker_personality
			}
		}
		change_religion = corinite
		add_country_modifier = {
			name = "conversion_zeal"
			duration = 3650
		}
		capital_scope = {
			change_religion = corinite
			add_permanent_province_modifier = {
				name = "religious_zeal_at_conv"
				duration = 9000
			}
		}
	}

}